<?xml version="1.0" encoding="UTF-8" standalone="no"?>
<!DOCTYPE svg PUBLIC "-//W3C//DTD SVG 1.1//EN" "http://www.w3.org/Graphics/SVG/1.1/DTD/svg11.dtd">
<svg width="100%" height="100%" viewBox="0 0 100 100" version="1.1" xmlns="http://www.w3.org/2000/svg" xmlns:xlink="http://www.w3.org/1999/xlink" xml:space="preserve" xmlns:serif="http://www.serif.com/" style="fill-rule:evenodd;clip-rule:evenodd;stroke-linejoin:round;stroke-miterlimit:1.41421;">
    <g id="Group">
        <path id="Shape" d="M42.16,27.84L44.23,27.84C55.8,27.84 62.44,39.12 62.49,46.75C62.49,48.23 62.08,49.51 60.49,49.48C57.02,49.48 58.26,43.81 55.4,38.97C54.05,36.58 49.7,32.25 44.75,32.29L42.88,32.29C40.22,32.29 35.23,33.82 31.88,38.97C27.69,45.19 30.44,49.75 26.88,49.72C26.34,49.72 24.79,49.58 24.81,47.01C25,35.31 35.49,27.87 42.16,27.84Z" style="fill:rgb(128,128,128);fill-rule:nonzero;stroke:rgb(128,128,128);stroke-width:1px;"/>
        <path id="Shape-2" d="M43.73,92.51C48.07,92.51 51.43,88.06 51.47,84.97L51.47,78.54C51.43,65.37 65,60.18 64.92,47C65,34.66 54,25.34 43.73,25.36C35.18,25.36 29.35,30.97 27.14,33.89C20.52,42.25 24.33,50.22 19.64,50.22C18.31,50.22 17.01,49.45 16.98,46.75C16.98,46.707 16.98,46.663 16.98,46.62C16.98,31.879 29.109,19.75 43.85,19.75C43.893,19.75 43.937,19.75 43.98,19.75C57.4,19.75 70.59,30.7 70.59,47.46C70.59,62.99 57.29,66.23 57.29,79.86L57.29,85.68C57.29,91.68 52.07,98.5 43.49,98.54C43.138,98.425 42.777,98.341 42.41,98.29C40.785,97.792 39.786,96.129 40.11,94.46C40.56,93.02 41.87,92.67 43.62,92.46L43.73,92.46L43.73,92.51Z" style="fill:rgb(128,128,128);fill-rule:nonzero;stroke:rgb(128,128,128);stroke-width:1px;"/>
        <path id="Shape-3" d="M32.61,69.82L29.24,73.28L19.94,63.91L23.32,60.45L32.61,69.82Z" style="fill:rgb(128,128,128);fill-rule:nonzero;stroke:rgb(128,128,128);stroke-width:1px;"/>
        <path id="Shape-4" d="M32.43,57.88C32.385,56.417 33.538,55.17 35,55.1C36.528,55.1 37.785,56.357 37.785,57.885C37.785,59.413 36.528,60.67 35,60.67C33.535,60.605 32.38,59.355 32.43,57.89L32.43,57.88Z" style="fill:rgb(128,128,128);fill-rule:nonzero;stroke:rgb(128,128,128);stroke-width:1px;"/>
        <path id="Shape-5" d="M41,49.12C41,49.107 41,49.093 41,49.08C41,47.584 42.224,46.351 43.72,46.34C45.218,46.383 46.43,47.621 46.44,49.12C46.392,50.576 45.177,51.746 43.72,51.74C43.697,51.741 43.673,51.741 43.65,51.741C42.207,51.741 41.016,50.563 41,49.12Z" style="fill:rgb(128,128,128);fill-rule:nonzero;stroke:rgb(128,128,128);stroke-width:1px;"/>
        <path id="Shape-6" d="M6.16,84.7C6.158,84.659 6.157,84.619 6.157,84.578C6.157,83.207 7.286,82.078 8.657,82.078C8.688,82.078 8.719,82.079 8.75,82.08C8.783,82.079 8.817,82.078 8.85,82.078C10.287,82.078 11.47,83.261 11.47,84.698C11.47,84.699 11.47,84.699 11.47,84.7C11.481,86.207 10.257,87.458 8.75,87.48C7.318,87.449 6.157,86.263 6.157,84.831C6.157,84.787 6.158,84.744 6.16,84.7Z" style="fill:rgb(128,128,128);fill-rule:nonzero;stroke:rgb(128,128,128);stroke-width:1px;"/>
        <path id="Shape-7" d="M14.76,75.94C14.76,75.927 14.76,75.913 14.76,75.9C14.76,74.404 15.984,73.171 17.48,73.16C18.904,73.201 20.053,74.384 20.053,75.809C20.053,75.853 20.052,75.896 20.05,75.94C20.084,77.4 18.938,78.64 17.48,78.72C15.988,78.662 14.785,77.433 14.76,75.94Z" style="fill:rgb(128,128,128);fill-rule:nonzero;stroke:rgb(128,128,128);stroke-width:1px;"/>
        <path id="Shape-8" d="M51.59,14.48C63.115,17.54 72.282,26.339 75.81,37.73L80,36.36C76.046,23.542 65.755,13.627 52.8,10.15L51.58,14.6L51.58,14.47L51.59,14.48Z" style="fill:rgb(128,128,128);fill-rule:nonzero;stroke:rgb(128,128,128);stroke-width:1px;"/>
        <path id="Shape-9" d="M53.91,5.45L55.1,1C71.198,5.255 84.021,17.511 89,33.4L84.52,34.88C79.997,20.513 68.443,9.405 53.91,5.45Z" style="fill:rgb(128,128,128);fill-rule:nonzero;stroke:rgb(128,128,128);stroke-width:1px;"/>
    </g>
</svg>
