<?xml version="1.0" encoding="UTF-8" standalone="no"?>
<!DOCTYPE svg PUBLIC "-//W3C//DTD SVG 1.1//EN" "http://www.w3.org/Graphics/SVG/1.1/DTD/svg11.dtd">
<svg width="100%" height="100%" viewBox="0 0 100 100" version="1.1" xmlns="http://www.w3.org/2000/svg" xmlns:xlink="http://www.w3.org/1999/xlink" xml:space="preserve" xmlns:serif="http://www.serif.com/" style="fill-rule:evenodd;clip-rule:evenodd;stroke-linejoin:round;stroke-miterlimit:1.41421;">
    <g id="Group-7">
        <path id="Rectangle-3" d="M100,24.12C100,17.999 95.031,13.03 88.91,13.03L11.09,13.03C4.969,13.03 0,17.999 0,24.12L0,69.73C0,75.851 4.969,80.82 11.09,80.82L88.91,80.82C95.031,80.82 100,75.851 100,69.73L100,24.12Z" style="fill:rgb(128,128,128);stroke:rgb(128,128,128);stroke-width:1px;"/>
        <g id="CC" transform="matrix(1,0,0,1,21.88,57.39)">
            <text x="0px" y="0px" style="font-family:'Arial-BoldMT', 'Arial', sans-serif;font-weight:700;font-size:36.96px;fill:white;">CC</text>
        </g>
    </g>
</svg>
